{
    "GameObject": {
        "Components": [
            {
                "FlipX": false,
                "FlipY": false,
                "_type": "Sprite",
                "mModColor": {
                    "a": 1.0,
                    "b": 1.0,
                    "g": 1.0,
                    "r": 1.0
                },
                "mTextureName": "..//Resources//Textures//fence_2.png",
                "mbEmitOutline": false,
                "mbGetOutlined": false,
                "mbVisible": true
            },
            {
                "_type": "BoxCollider",
                "ghost": false,
                "mCollSize": {
                    "x": 200.0,
                    "y": 200.0
                },
                "mCollisionShape": 4,
                "mOffset": {
                    "x": 0.0,
                    "y": 0.0
                }
            }
        ],
        "Tag": 4,
        "mPosition": {
            "x": 961.7115478515625,
            "y": 1093.4058837890625
        },
        "mRotation": 0.0,
        "mScale": {
            "x": 200.0,
            "y": 200.0
        },
        "mSceneSpace": "MainArea",
        "mSortingPos": {
            "x": 0.0,
            "y": 0.0
        },
        "name": "barrier"
    }
}