{
    "Components": [
        {
            "FlipX": false,
            "FlipY": false,
            "_type": "Sprite",
            "mModColor": {
                "a": 1.0,
                "b": 1.0,
                "g": 1.0,
                "r": 1.0
            },
            "mTextureName": "..//Resources//Textures//tree3.png",
            "mbEmitOutline": true,
            "mbGetOutlined": false,
            "mbVisible": true
        }
    ],
    "Tag": 4,
    "mArchetypeName": "EvilTree3",
    "mPosition": {
        "x": 21331.7265625,
        "y": 37698.10546875
    },
    "mRotation": 0.0,
    "mScale": {
        "x": 540.0536499023438,
        "y": 750.007080078125
    },
    "mSceneSpace": "MainArea",
    "mSortingPos": {
        "x": 0.0,
        "y": -313.0
    },
    "name": "EvilTree3"
}