{
    "Components": [
        {
            "FlipX": false,
            "FlipY": false,
            "_type": "Sprite",
            "mModColor": {
                "a": 1.0,
                "b": 1.0,
                "g": 1.0,
                "r": 1.0
            },
            "mTextureName": "..//Resources//Textures//tree1.png",
            "mbEmitOutline": true,
            "mbGetOutlined": false,
            "mbVisible": true
        }
    ],
    "Tag": 4,
    "mArchetypeName": "EvilTree1",
    "mPosition": {
        "x": 20905.9375,
        "y": 35926.72265625
    },
    "mRotation": 0.0,
    "mScale": {
        "x": 423.0,
        "y": 681.0
    },
    "mSceneSpace": "MainArea",
    "mSortingPos": {
        "x": 0.0,
        "y": -329.0
    },
    "name": "EvilTree1"
}