{
    "Components": [
        {
            "_type": "Sprite",
            "mModColor": {
                "a": 1.0,
                "b": 1.0,
                "g": 1.0,
                "r": 1.0
            },
            "mTextureName": "..//Resources//Textures//arbol3.png",
            "mbEmitOutline": false,
            "mbGetOutlined": false,
            "mbVisible": true
        },
        {
            "_type": "BoxCollider",
            "ghost": false,
            "mCollSize": {
                "x": 50.0,
                "y": 100.0
            },
            "mCollisionShape": 1,
            "mOffset": {
                "x": 0.0,
                "y": -227.0
            }
        }
    ],
    "Tag": 2,
    "mPosition": {
        "x": -832.0,
        "y": 665.0
    },
    "mRotation": 0.0,
    "mScale": {
        "x": 266.0,
        "y": 638.0
    },
    "mSceneSpace": "",
    "mSortingPos": {
        "x": 0.0,
        "y": 0.0
    },
    "name": "obs3"
}