{
    "Components": [
        {
            "_type": "Sprite",
            "mModColor": {
                "a": 1.0,
                "b": 0.9999899864196777,
                "g": 0.9999899864196777,
                "r": 1.0
            },
            "mTextureName": "..//Resources//Textures//flores blancas.png",
            "mbEmitOutline": false,
            "mbGetOutlined": false,
            "mbVisible": true
        },
        {
            "_type": "BoxCollider",
            "ghost": false,
            "mCollSize": {
                "x": 123.01495361328125,
                "y": -66.54193115234375
            },
            "mCollisionShape": 1,
            "mOffset": {
                "x": 0.656707763671875,
                "y": -16.635482788085938
            }
        },
        {
            "_type": "DestroyableObject"
        },
        {
            "_type": "InteractionComponent"
        }
    ],
    "Tag": 5,
    "mPosition": {
        "x": -670.3058471679688,
        "y": 11893.2724609375
    },
    "mRotation": 0.0,
    "mScale": {
        "x": 200.0,
        "y": 200.0
    },
    "mSceneSpace": "",
    "mSortingPos": {
        "x": 0.0,
        "y": 0.0
    },
    "name": "White Flowers"
}