{
    "AreaData": {
        "first": {
            "x": 1.0,
            "y": 1.0
        },
        "last": {
            "x": 1.0,
            "y": 1.0
        },
        "name": "default"
    },
    "Objects": {
        "Archetypes": {
            "GameObject": [
                {
                    "Tag": 4,
                    "mPosition": {
                        "x": 123.0,
                        "y": 0.0
                    },
                    "mSceneSpace": "MainArea",
                    "mSortingPos": {
                        "x": 0.0,
                        "y": 0.0
                    },
                    "name": "GameObject"
                }
            ]
        }
    }
}