{
    "GameObject": {
        "Components": {
            "collisioncomp": {
                "_type": "collisioncomp",
                "colType": 0,
                "mPosition": {
                    "x": 0.0,
                    "y": 0.0
                }
            },
            "renderable": {
                "_type": "renderable",
                "mTextureName": "..//Resources//Textures//Bidooof.png"
            }
        },
        "mPosition": {
            "x": 0.0,
            "y": 0.0,
            "z": 0.0
        },
        "mRotation": 0.0,
        "mScale": {
            "x": 200.0,
            "y": 200.0
        },
        "name": "go1"
    }
}