{
    "AreaData": {
        "first": {
            "x": 1.0,
            "y": 1.0
        },
        "last": {
            "x": 1.0,
            "y": 1.0
        },
        "name": "default"
    },
    "Objects": {
        "Archetypes": {
            "Roble2": [
                {
                    "Tag": 4,
                    "mPosition": {
                        "x": 9475.095703125,
                        "y": 36430.73046875
                    },
                    "mSceneSpace": "MainArea",
                    "mSortingPos": {
                        "x": 0.0,
                        "y": -397.0
                    },
                    "name": "GameObject(Clone)(Clone)(Clone)(Clone)(Clone)(Clone)(Clone)(Clone)(Clone)(Clone)(Clone)(Clone)(Clone)(Clone)(Clone)(Clone)(Clone)(Clone)(Clone)(Clone)(Clone)"
                },
                {
                    "Tag": 4,
                    "mPosition": {
                        "x": 9676.3125,
                        "y": 36865.30859375
                    },
                    "mSceneSpace": "MainArea",
                    "mSortingPos": {
                        "x": 0.0,
                        "y": -397.0
                    },
                    "name": "GameObject(Clone)(Clone)(Clone)(Clone)(Clone)(Clone)(Clone)(Clone)(Clone)(Clone)(Clone)(Clone)(Clone)(Clone)(Clone)(Clone)(Clone)(Clone)(Clone)(Clone)(Clone)(Clone)(Clone)(Clone)(Clone)(Clone)(Clone)"
                },
                {
                    "Tag": 4,
                    "mPosition": {
                        "x": 9077.791015625,
                        "y": 36904.94921875
                    },
                    "mSceneSpace": "MainArea",
                    "mSortingPos": {
                        "x": 0.0,
                        "y": -397.0
                    },
                    "name": "GameObject(Clone)(Clone)(Clone)(Clone)(Clone)(Clone)(Clone)(Clone)(Clone)(Clone)(Clone)(Clone)(Clone)(Clone)(Clone)(Clone)(Clone)(Clone)(Clone)(Clone)(Clone)(Clone)(Clone)"
                },
                {
                    "Tag": 4,
                    "mPosition": {
                        "x": 9336.927734375,
                        "y": 37102.66796875
                    },
                    "mSceneSpace": "MainArea",
                    "mSortingPos": {
                        "x": 0.0,
                        "y": -397.0
                    },
                    "name": "GameObject(Clone)(Clone)(Clone)(Clone)(Clone)(Clone)(Clone)(Clone)(Clone)(Clone)(Clone)(Clone)(Clone)(Clone)(Clone)(Clone)(Clone)(Clone)(Clone)(Clone)(Clone)"
                },
                {
                    "Tag": 4,
                    "mPosition": {
                        "x": 9751.685546875,
                        "y": 37232.87890625
                    },
                    "mSceneSpace": "MainArea",
                    "mSortingPos": {
                        "x": 0.0,
                        "y": -397.0
                    },
                    "name": "GameObject(Clone)(Clone)(Clone)(Clone)(Clone)(Clone)(Clone)(Clone)(Clone)(Clone)(Clone)(Clone)(Clone)(Clone)(Clone)(Clone)(Clone)(Clone)(Clone)(Clone)(Clone)(Clone)(Clone)(Clone)(Clone)(Clone)(Clone)(Clone)"
                },
                {
                    "Tag": 4,
                    "mPosition": {
                        "x": 8749.439453125,
                        "y": 37251.67578125
                    },
                    "mSceneSpace": "MainArea",
                    "mSortingPos": {
                        "x": 0.0,
                        "y": -397.0
                    },
                    "name": "GameObject(Clone)(Clone)(Clone)(Clone)(Clone)(Clone)(Clone)(Clone)(Clone)(Clone)(Clone)(Clone)(Clone)(Clone)(Clone)(Clone)(Clone)(Clone)(Clone)(Clone)"
                },
                {
                    "Tag": 4,
                    "mPosition": {
                        "x": 9436.697265625,
                        "y": 37579.15234375
                    },
                    "mSceneSpace": "MainArea",
                    "mSortingPos": {
                        "x": 0.0,
                        "y": -397.0
                    },
                    "name": "GameObject(Clone)(Clone)(Clone)(Clone)(Clone)(Clone)(Clone)(Clone)(Clone)(Clone)(Clone)(Clone)(Clone)(Clone)(Clone)(Clone)(Clone)(Clone)(Clone)(Clone)(Clone)"
                },
                {
                    "Tag": 4,
                    "mPosition": {
                        "x": 9662.107421875,
                        "y": 37709.42578125
                    },
                    "mSceneSpace": "MainArea",
                    "mSortingPos": {
                        "x": 0.0,
                        "y": -397.0
                    },
                    "name": "GameObject(Clone)(Clone)(Clone)(Clone)(Clone)(Clone)(Clone)(Clone)(Clone)(Clone)(Clone)(Clone)(Clone)(Clone)(Clone)(Clone)(Clone)(Clone)(Clone)(Clone)(Clone)(Clone)"
                },
                {
                    "Tag": 4,
                    "mPosition": {
                        "x": 9682.90625,
                        "y": 39913.93359375
                    },
                    "mSceneSpace": "MainArea",
                    "mSortingPos": {
                        "x": 0.0,
                        "y": -397.0
                    },
                    "name": "GameObject(Clone)(Clone)(Clone)(Clone)(Clone)(Clone)(Clone)(Clone)(Clone)(Clone)(Clone)(Clone)(Clone)(Clone)(Clone)(Clone)(Clone)(Clone)(Clone)(Clone)(Clone)(Clone)(Clone)(Clone)(Clone)(Clone)(Clone)(Clone)(Clone)"
                }
            ]
        },
        "GameObjects": [
            {
                "Components": [
                    {
                        "FlipX": false,
                        "FlipY": false,
                        "_type": "Sprite",
                        "mModColor": {
                            "a": 1.0,
                            "b": 1.0,
                            "g": 1.0,
                            "r": 1.0
                        },
                        "mTextureName": "..//Resources//Textures//Cliff 300 pixel/Cliff_4_W.png",
                        "mbEmitOutline": false,
                        "mbVisible": true
                    }
                ],
                "Tag": 4,
                "mPosition": {
                    "x": 9014.99609375,
                    "y": 38207.04296875
                },
                "mRotation": 0.0014386766124516726,
                "mScale": {
                    "x": 2251.06103515625,
                    "y": 1886.23388671875
                },
                "mSceneSpace": "MainArea",
                "mSortingPos": {
                    "x": 0.0,
                    "y": -223.0
                },
                "name": "GameObject(Clone)(Clone)(Clone)(Clone)(Clone)(Clone)(Clone)(Clone)(Clone)(Clone)(Clone)(Clone)"
            },
            {
                "Components": [
                    {
                        "FlipX": false,
                        "FlipY": false,
                        "_type": "Sprite",
                        "mModColor": {
                            "a": 1.0,
                            "b": 1.0,
                            "g": 1.0,
                            "r": 1.0
                        },
                        "mTextureName": "..//Resources//Textures//Cliff complements/Cliff_Complements_2_E.png",
                        "mbEmitOutline": false,
                        "mbVisible": true
                    }
                ],
                "Tag": 4,
                "mPosition": {
                    "x": 9563.86328125,
                    "y": 39576.64453125
                },
                "mRotation": 0.02495689131319523,
                "mScale": {
                    "x": 452.7253723144531,
                    "y": 484.1562194824219
                },
                "mSceneSpace": "MainArea",
                "mSortingPos": {
                    "x": 0.0,
                    "y": -397.0
                },
                "name": "GameObject(Clone)(Clone)(Clone)(Clone)(Clone)(Clone)(Clone)(Clone)(Clone)(Clone)(Clone)(Clone)(Clone)(Clone)(Clone)(Clone)(Clone)(Clone)(Clone)(Clone)(Clone)(Clone)(Clone)"
            },
            {
                "Components": [
                    {
                        "FlipX": false,
                        "FlipY": false,
                        "_type": "Sprite",
                        "mModColor": {
                            "a": 1.0,
                            "b": 1.0,
                            "g": 1.0,
                            "r": 1.0
                        },
                        "mTextureName": "..//Resources//Textures//Cliff 300 pixel/Cliff_4_E.png",
                        "mbEmitOutline": false,
                        "mbVisible": true
                    }
                ],
                "Tag": 4,
                "mPosition": {
                    "x": 7960.341796875,
                    "y": 287810016.0
                },
                "mRotation": -0.000672701105941087,
                "mScale": {
                    "x": 2900.0,
                    "y": 2430.0
                },
                "mSceneSpace": "MainArea",
                "mSortingPos": {
                    "x": 0.0,
                    "y": -223.0
                },
                "name": "GameObject(Clone)(Clone)(Clone)(Clone)(Clone)(Clone)(Clone)"
            }
        ]
    }
}